Prevendo Demandas de Estoque com Base em Vendas
…
vendas_produto <- vendas %>%
  select(Produto_ID, Unidade_Vendida, Peso_Vendido,
         Unidade_Devolucao, Peso_Devolucao, Demanda_Estoque) %>%
  group_by(Produto_ID) %>%
  summarise(Unidade_Vendida = sum(Unidade_Vendida), 
            Peso_Vendido = sum(Peso_Vendido),
            Unidade_Devolucao = sum(Unidade_Devolucao), 
            Peso_Devolucao = sum(Peso_Devolucao), 
            Demanda_Estoque = sum(Demanda_Estoque))

Tabela de dados sumarizados por produto

print(vendas_produto)

## # A tibble: 1,062 x 6
##    Produto_ID Unidade_Vendida Peso_Vendido Unidade_Devolucao Peso_Devolucao
##    <fct>                <int>        <dbl>             <int>          <dbl>
##  1 53                       2         28.6                 0            0  
##  2 72                    1894       6975.                 17           62.9
##  3 73                    1703      36549.                 37          795. 
##  4 106                     12        229.                  0            0  
##  5 123                    448       9480.                  0            0  
##  6 131                    155       2976                   0            0  
##  7 132                    131       1918.                  0            0  
##  8 135                    128       6246.                  0            0  
##  9 141                    568       7940.                  1           14.0
## 10 145                    652      12978.                  0            0  
## # ... with 1,052 more rows, and 1 more variable: Demanda_Estoque <int>
…
vendas_cliente <- vendas %>%
  select(Cliente_ID, Unidade_Vendida, Peso_Vendido,
         Unidade_Devolucao, Peso_Devolucao, Demanda_Estoque) %>%
  group_by(Cliente_ID) %>%
  summarise(Unidade_Vendida = sum(Unidade_Vendida), 
            Peso_Vendido = sum(Peso_Vendido),
            Unidade_Devolucao = sum(Unidade_Devolucao), 
            Peso_Devolucao = sum(Peso_Devolucao), 
            Demanda_Estoque = sum(Demanda_Estoque))

Tabela de dados sumarizados por cliente

print(vendas_cliente)

## # A tibble: 162,067 x 6
##    Cliente_ID Unidade_Vendida Peso_Vendido Unidade_Devolucao Peso_Devolucao
##    <fct>                <int>        <dbl>             <int>          <dbl>
##  1 26                      43       846.                   0              0
##  2 60                     324     15785.                   0              0
##  3 65                     182      1933.                   0              0
##  4 105                     22       469.                   0              0
##  5 107                     89      1437.                   0              0
##  6 772                      3        29.5                  0              0
##  7 795                      2         9                    0              0
##  8 1589                     1         5.38                 0              0
##  9 2006                     4        27.0                  0              0
## 10 2011                     4        20.9                  0              0
## # ... with 162,057 more rows, and 1 more variable: Demanda_Estoque <int>
…
