Prevendo Demandas de Estoque com Base em Vendas
…
vendas_produto <- vendas %>%
  select(Produto_ID, Unidade_Vendida, Peso_Vendido,
         Unidade_Devolucao, Peso_Devolucao, Demanda_Estoque) %>%
  group_by(Produto_ID) %>%
  summarise(Unidade_Vendida = sum(Unidade_Vendida), 
            Peso_Vendido = sum(Peso_Vendido),
            Unidade_Devolucao = sum(Unidade_Devolucao), 
            Peso_Devolucao = sum(Peso_Devolucao), 
            Demanda_Estoque = sum(Demanda_Estoque))

Tabela de dados sumarizados por produto

print(vendas_produto)

## # A tibble: 1,230 x 6
##    Produto_ID Unidade_Vendida Peso_Vendido Unidade_Devolucao Peso_Devolucao
##    <fct>                <int>        <dbl>             <int>          <dbl>
##  1 53                    1004       14357.                 0            0  
##  2 72                    5918       21779.               118          437. 
##  3 73                    6186      133075.               134         2864. 
##  4 106                     80        1557.                 0            0  
##  5 123                   1299       27700.                 2           42.7
##  6 131                    164        3149.                 0            0  
##  7 132                    187        2738.                 0            0  
##  8 134                     55        2640                  0            0  
##  9 135                    229       11175.                 0            0  
## 10 141                   1366       19046.                10          140. 
## # ... with 1,220 more rows, and 1 more variable: Demanda_Estoque <int>
…
vendas_cliente <- vendas %>%
  select(Cliente_ID, Unidade_Vendida, Peso_Vendido,
         Unidade_Devolucao, Peso_Devolucao, Demanda_Estoque) %>%
  group_by(Cliente_ID) %>%
  summarise(Unidade_Vendida = sum(Unidade_Vendida), 
            Peso_Vendido = sum(Peso_Vendido),
            Unidade_Devolucao = sum(Unidade_Devolucao), 
            Peso_Devolucao = sum(Peso_Devolucao), 
            Demanda_Estoque = sum(Demanda_Estoque))

Tabela de dados sumarizados por cliente

print(vendas_cliente)

## # A tibble: 350,996 x 6
##    Cliente_ID Unidade_Vendida Peso_Vendido Unidade_Devolucao Peso_Devolucao
##    <fct>                <int>        <dbl>             <int>          <dbl>
##  1 26                      81       1579.                  0              0
##  2 60                     782      32397.                  0              0
##  3 65                     515       8091.                  0              0
##  4 105                    134       2306.                  0              0
##  5 106                     23        549.                  0              0
##  6 107                     97       1597.                  0              0
##  7 772                      3         29.5                 0              0
##  8 786                      1         11.5                 0              0
##  9 795                      2          9                   0              0
## 10 797                      3         20.3                 0              0
## # ... with 350,986 more rows, and 1 more variable: Demanda_Estoque <int>
…
